[gd_scene load_steps=2 format=2]

[ext_resource path="res://Scripts/LobbyPlayerList.gd" type="Script" id=1]

[node name="Game" type="Control"]
anchor_right = 1.0
anchor_bottom = 1.0
mouse_filter = 1
size_flags_horizontal = 3
size_flags_vertical = 3
script = ExtResource( 1 )
__meta__ = {
"_edit_use_anchors_": false
}

[node name="HBoxContainer" type="HBoxContainer" parent="."]
anchor_right = 1.0
anchor_bottom = 1.0
__meta__ = {
"_edit_use_anchors_": false
}

[node name="RichTextLabel" type="RichTextLabel" parent="HBoxContainer"]
visible = false
margin_right = 253.0
margin_bottom = 600.0
size_flags_horizontal = 3

[node name="VBoxContainer2" type="VBoxContainer" parent="HBoxContainer"]
margin_right = 510.0
margin_bottom = 600.0
size_flags_horizontal = 3

[node name="Label" type="Label" parent="HBoxContainer/VBoxContainer2"]
margin_right = 510.0
margin_bottom = 14.0
text = "Rôles disponibles"

[node name="ItemList" type="ItemList" parent="HBoxContainer/VBoxContainer2"]
margin_top = 18.0
margin_right = 510.0
margin_bottom = 307.0
size_flags_horizontal = 3
size_flags_vertical = 3
same_column_width = true

[node name="RichTextLabel2" type="RichTextLabel" parent="HBoxContainer/VBoxContainer2"]
margin_top = 311.0
margin_right = 510.0
margin_bottom = 600.0
size_flags_horizontal = 3
size_flags_vertical = 3

[node name="VBoxContainer" type="VBoxContainer" parent="HBoxContainer"]
margin_left = 514.0
margin_right = 1024.0
margin_bottom = 600.0
size_flags_horizontal = 3

[node name="Label" type="Label" parent="HBoxContainer/VBoxContainer"]
margin_right = 510.0
margin_bottom = 14.0
text = "Joueurs connectés"

[node name="ItemList" type="ItemList" parent="HBoxContainer/VBoxContainer"]
margin_top = 18.0
margin_right = 510.0
margin_bottom = 576.0
size_flags_horizontal = 3
size_flags_vertical = 3
same_column_width = true

[node name="Action" type="Button" parent="HBoxContainer/VBoxContainer"]
margin_top = 580.0
margin_right = 510.0
margin_bottom = 600.0
disabled = true
text = "Lancer la partie"
[connection signal="item_selected" from="HBoxContainer/VBoxContainer2/ItemList" to="." method="_on_ItemList_item_selected"]
[connection signal="pressed" from="HBoxContainer/VBoxContainer/Action" to="." method="_on_Action_pressed"]
